…
Plot the bathymetry used in the project

``` r
library(resourcecode)
resourcecode::rscd_mapplot(resourcecode::rscd_field$depth)
```

<img src="man/figures/README-plot-bathymetry-1.png" width="100%" style="display: block; margin: auto;" />

See the variables available in the database:

``` r
rscd_variables
#> # A tibble: 88 × 3
#>    name      longname                           unit          
#>    <chr>     <chr>                              <chr>         
#>  1 longitude longitude                          "degree_east" 
#>  2 latitude  latitude                           "degree_north"
#>  3 tri       tri                                ""            
#>  4 MAPSTA    status map                         "1"           
#>  5 dpt       depth                              "m"           
#>  6 ucur      eastward current                   "m s-1"       
#>  7 vcur      northward current                  "m s-1"       
#>  8 uwnd      eastward_wind                      "m s-1"       
#>  9 vwnd      northward_wind                     "m s-1"       
#> 10 wlv       sea surface height above sea level "m"           
#> # ℹ 78 more rows
```
