# JONSWAP computation works

    # A tibble: 36 x 2
            freq       spec
       <dbl[1d]>      <dbl>
     1    0.0339  0        
     2    0.0373  0.0000179
     3    0.0410  0.0152   
     4    0.0451  0.362    
     5    0.0496  2.49     
     6    0.0546  8.35     
     7    0.0601 19.0      
     8    0.0661 51.1      
     9    0.0727 61.4      
    10    0.0799 23.1      
    # i 26 more rows

---

    # A tibble: 317 x 2
        freq      spec
       <dbl>     <dbl>
     1 0.003 0        
     2 0.006 0        
     3 0.009 0        
     4 0.012 0        
     5 0.015 0        
     6 0.018 2.02e-207
     7 0.021 3.79e- 98
     8 0.024 1.80e- 51
     9 0.027 6.07e- 29
    10 0.03  4.68e- 17
    # i 307 more rows
